data15_13TeV:data15_13TeV.00276262.physics_Main.merge.DAOD_JETM2.f620_m1480_p2425/
data15_13TeV:data15_13TeV.00276329.physics_Main.merge.DAOD_JETM2.f620_m1480_p2425/
data15_13TeV:data15_13TeV.00276336.physics_Main.merge.DAOD_JETM2.f620_m1480_p2425/
data15_13TeV:data15_13TeV.00276416.physics_Main.merge.DAOD_JETM2.f620_m1480_p2425/
data15_13TeV:data15_13TeV.00276511.physics_Main.merge.DAOD_JETM2.f620_m1480_p2425/
data15_13TeV:data15_13TeV.00276689.physics_Main.merge.DAOD_JETM2.f623_m1480_p2425/
data15_13TeV:data15_13TeV.00276778.physics_Main.merge.DAOD_JETM2.f620_m1480_p2425/
data15_13TeV:data15_13TeV.00276790.physics_Main.merge.DAOD_JETM2.f620_m1480_p2425/
data15_13TeV:data15_13TeV.00276952.physics_Main.merge.DAOD_JETM2.f620_m1480_p2425/
data15_13TeV:data15_13TeV.00276954.physics_Main.merge.DAOD_JETM2.f620_m1480_p2425/
data15_13TeV:data15_13TeV.00278880.physics_Main.merge.DAOD_JETM2.f628_m1497_p2425/
data15_13TeV:data15_13TeV.00278912.physics_Main.merge.DAOD_JETM2.f628_m1497_p2425/
data15_13TeV:data15_13TeV.00278968.physics_Main.merge.DAOD_JETM2.f628_m1497_p2425/
data15_13TeV:data15_13TeV.00279169.physics_Main.merge.DAOD_JETM2.f628_m1497_p2425/
data15_13TeV:data15_13TeV.00279259.physics_Main.merge.DAOD_JETM2.f628_m1497_p2425/
data15_13TeV:data15_13TeV.00279279.physics_Main.merge.DAOD_JETM2.f628_m1497_p2425/
data15_13TeV:data15_13TeV.00279284.physics_Main.merge.DAOD_JETM2.f628_m1497_p2425/
data15_13TeV:data15_13TeV.00279345.physics_Main.merge.DAOD_JETM2.f628_m1497_p2425/
data15_13TeV:data15_13TeV.00279515.physics_Main.merge.DAOD_JETM2.f628_m1497_p2425/
data15_13TeV:data15_13TeV.00279598.physics_Main.merge.DAOD_JETM2.f628_m1497_p2425/
data15_13TeV:data15_13TeV.00279685.physics_Main.merge.DAOD_JETM2.f628_m1497_p2425/
data15_13TeV:data15_13TeV.00279764.physics_Main.merge.DAOD_JETM2.f628_m1497_p2425/
data15_13TeV:data15_13TeV.00279813.physics_Main.merge.DAOD_JETM2.f628_m1497_p2425/
data15_13TeV:data15_13TeV.00279867.physics_Main.merge.DAOD_JETM2.f628_m1497_p2425/
data15_13TeV:data15_13TeV.00279928.physics_Main.merge.DAOD_JETM2.f628_m1497_p2425/
data15_13TeV:data15_13TeV.00279932.physics_Main.merge.DAOD_JETM2.f629_m1504_p2425/
data15_13TeV:data15_13TeV.00279984.physics_Main.merge.DAOD_JETM2.f629_m1504_p2425/
data15_13TeV:data15_13TeV.00280319.physics_Main.merge.DAOD_JETM2.f629_m1504_p2425/
data15_13TeV:data15_13TeV.00280368.physics_Main.merge.DAOD_JETM2.f629_m1504_p2425/
data15_13TeV:data15_13TeV.00280423.physics_Main.merge.DAOD_JETM2.f629_m1504_p2425/
data15_13TeV:data15_13TeV.00280464.physics_Main.merge.DAOD_JETM2.f629_m1504_p2425/
data15_13TeV:data15_13TeV.00280614.physics_Main.merge.DAOD_JETM2.f629_m1504_p2425/
data15_13TeV:data15_13TeV.00280673.physics_Main.merge.DAOD_JETM2.f629_m1504_p2425/
data15_13TeV:data15_13TeV.00280753.physics_Main.merge.DAOD_JETM2.f629_m1504_p2425/
data15_13TeV:data15_13TeV.00280853.physics_Main.merge.DAOD_JETM2.f629_m1504_p2425/
data15_13TeV:data15_13TeV.00280862.physics_Main.merge.DAOD_JETM2.f629_m1504_p2425/
data15_13TeV:data15_13TeV.00280950.physics_Main.merge.DAOD_JETM2.f629_m1504_p2425/
data15_13TeV:data15_13TeV.00280977.physics_Main.merge.DAOD_JETM2.f629_m1504_p2425/
data15_13TeV:data15_13TeV.00281070.physics_Main.merge.DAOD_JETM2.f629_m1504_p2425/
data15_13TeV:data15_13TeV.00281074.physics_Main.merge.DAOD_JETM2.f629_m1504_p2425/
data15_13TeV:data15_13TeV.00281075.physics_Main.merge.DAOD_JETM2.f629_m1504_p2425/
data15_13TeV:data15_13TeV.00281317.physics_Main.merge.DAOD_JETM2.f629_m1504_p2425/
data15_13TeV:data15_13TeV.00281385.physics_Main.merge.DAOD_JETM2.f629_m1504_p2425/
data15_13TeV:data15_13TeV.00281411.physics_Main.merge.DAOD_JETM2.f629_m1504_p2425/
