data17_5TeV:data17_5TeV.00340918.physics_MinBias.recon.AOD.r10235_tid13014898_00
data17_5TeV:data17_5TeV.00341184.physics_MinBias.recon.AOD.r10235
data17_5TeV:data17_5TeV.00340718.physics_MinBias.recon.AOD.r10235
data17_5TeV:data17_5TeV.00340925.physics_MinBias.recon.AOD.r10235_tid13014811_00
data17_5TeV:data17_5TeV.00340973.physics_MinBias.recon.AOD.r10235_tid13014829_00
data17_5TeV:data17_5TeV.00340683.physics_MinBias.recon.AOD.r10235
data17_5TeV:data17_5TeV.00341123.physics_MinBias.recon.AOD.r10235_tid13014844_00
data17_5TeV:data17_5TeV.00340910.physics_MinBias.recon.AOD.r10235_tid13014816_00
data17_5TeV:data17_5TeV.00340814.physics_MinBias.recon.AOD.r10235_tid13014885_00
data17_5TeV:data17_5TeV.00340644.physics_MinBias.recon.AOD.r10235
data17_5TeV:data17_5TeV.00340697.physics_MinBias.recon.AOD.r10235_tid13014891_00
data17_5TeV:data17_5TeV.00340850.physics_MinBias.recon.AOD.r10235_tid13014852_00
data17_5TeV:data17_5TeV.00341027.physics_MinBias.recon.AOD.r10235_tid13014822_00

