data17_13TeV:data17_13TeV.00341419.physics_Main.merge.AOD.f903_m1912
data17_13TeV:data17_13TeV.00341294.physics_Main.merge.AOD.f903_m1912
data17_13TeV:data17_13TeV.00341649.physics_Main.merge.AOD.f903_m1917
data17_13TeV:data17_13TeV.00341615.physics_Main.merge.AOD.f903_m1912
data17_13TeV:data17_13TeV.00341312.physics_Main.merge.AOD.f903_m1912
data17_13TeV:data17_13TeV.00341534.physics_Main.merge.AOD.f903_m1912
