mc16_5TeV.361101.PowhegPythia8EvtGen_AZNLOCTEQ6L1_Wplusmunu.merge.AOD.e4916_s3238_r10243_r10210
mc16_5TeV.361103.PowhegPythia8EvtGen_AZNLOCTEQ6L1_Wminusenu.merge.AOD.e4916_s3238_r10243_r10210
mc16_5TeV.361104.PowhegPythia8EvtGen_AZNLOCTEQ6L1_Wminusmunu.merge.AOD.e4916_s3238_r10243_r10210
mc16_5TeV.361107.PowhegPythia8EvtGen_AZNLOCTEQ6L1_Zmumu.merge.AOD.e4916_s3238_r10243_r10210
mc16_5TeV.361100.PowhegPythia8EvtGen_AZNLOCTEQ6L1_Wplusenu.merge.AOD.e4916_s3238_r10243_r10210
