data17_13TeV:data17_13TeV.00341419.physics_Main.deriv.DAOD_STDM4.f903_m1912_p3372
data17_13TeV:data17_13TeV.00341294.physics_Main.deriv.DAOD_STDM4.f903_m1912_p3372
data17_13TeV:data17_13TeV.00341615.physics_Main.deriv.DAOD_STDM4.f903_m1912_p3372
data17_13TeV:data17_13TeV.00341312.physics_Main.deriv.DAOD_STDM4.f903_m1912_p3372
data17_13TeV:data17_13TeV.00341534.physics_Main.deriv.DAOD_STDM4.f903_m1912_p3372
data17_13TeV:data17_13TeV.00341649.physics_Main.deriv.DAOD_STDM4.f903_m1917_p3267
