data17_5TeV:data17_5TeV.00340918.physics_Main.deriv.DAOD_STDM4.f898_m1907_p3372
data17_5TeV:data17_5TeV.00341184.physics_Main.deriv.DAOD_STDM4.f903_m1912_p3372
data17_5TeV:data17_5TeV.00340718.physics_Main.deriv.DAOD_STDM4.f896_m1902_p3372
data17_5TeV:data17_5TeV.00340925.physics_Main.deriv.DAOD_STDM4.f898_m1907_p3372
data17_5TeV:data17_5TeV.00340973.physics_Main.deriv.DAOD_STDM4.f899_m1912_p3372
data17_5TeV:data17_5TeV.00340683.physics_Main.deriv.DAOD_STDM4.f896_m1902_p3372
data17_5TeV:data17_5TeV.00341123.physics_Main.deriv.DAOD_STDM4.f902_m1912_p3372
data17_5TeV:data17_5TeV.00340910.physics_Main.deriv.DAOD_STDM4.f898_m1907_p3372
data17_5TeV:data17_5TeV.00340814.physics_Main.deriv.DAOD_STDM4.f897_m1902_p3372
data17_5TeV:data17_5TeV.00340644.physics_Main.deriv.DAOD_STDM4.f895_m1902_p3372
data17_5TeV:data17_5TeV.00340697.physics_Main.deriv.DAOD_STDM4.f896_m1902_p3372
data17_5TeV:data17_5TeV.00340850.physics_Main.deriv.DAOD_STDM4.f897_m1907_p3372
data17_5TeV:data17_5TeV.00341027.physics_Main.deriv.DAOD_STDM4.f902_m1912_p3372

